-------------------------------------------------------------------------------
Test set: org.owasp.webwolf.mailbox.MailboxControllerTest
-------------------------------------------------------------------------------
Tests run: 3, Failures: 0, Errors: 0, Skipped: 0, Time elapsed: 3.596 s - in org.owasp.webwolf.mailbox.MailboxControllerTest
