C:\Users\yueta\Documents\LTAT\milestone\webgoat-lessons\missing-function-ac\src\test\java\org\owasp\webgoat\missing_ac\DisplayUserTest.java
C:\Users\yueta\Documents\LTAT\milestone\webgoat-lessons\missing-function-ac\src\test\java\org\owasp\webgoat\missing_ac\MissingFunctionYourHashTest.java
C:\Users\yueta\Documents\LTAT\milestone\webgoat-lessons\missing-function-ac\src\test\java\org\owasp\webgoat\missing_ac\MissingFunctionACHiddenMenusTest.java
C:\Users\yueta\Documents\LTAT\milestone\webgoat-lessons\missing-function-ac\src\test\java\org\owasp\webgoat\missing_ac\MissingFunctionACUsersTest.java
