org\owasp\webgoat\SeleniumTest.class
org\owasp\webgoat\AccessControlTest$Item.class
org\owasp\webgoat\ChallengeTest.class
org\owasp\webgoat\CryptoTest.class
org\owasp\webgoat\WebWolfTest.class
org\owasp\webgoat\SqlInjectionMitigationTest.class
org\owasp\webgoat\IntegrationTest.class
org\owasp\webgoat\IDORTest.class
org\owasp\webgoat\JWTLessonTest.class
org\owasp\webgoat\ProgressRaceConditionTest.class
org\owasp\webgoat\AccessControlTest.class
org\owasp\webgoat\CSRFTest.class
org\owasp\webgoat\DeserializationTest.class
org\owasp\webgoat\GeneralLessonTest.class
org\owasp\webgoat\SqlInjectionLessonTest.class
org\owasp\webgoat\CSRFTest$Overview.class
org\owasp\webgoat\PathTraversalTest.class
org\owasp\webgoat\PasswordResetLessonTest.class
org\owasp\webgoat\XSSTest.class
org\owasp\webgoat\SSRFTest.class
org\owasp\webgoat\SqlInjectionAdvancedTest.class
org\owasp\webgoat\XXETest.class
