org\owasp\webwolf\user\RegistrationController.class
org\owasp\webwolf\user\WebGoatUser.class
org\owasp\webwolf\WebWolf.class
org\owasp\webwolf\requests\LandingPage.class
org\owasp\webwolf\FileServer$UploadedFile.class
org\owasp\webwolf\MvcConfiguration.class
org\owasp\webwolf\requests\WebWolfTraceRepository.class
org\owasp\webwolf\WebSecurityConfig.class
org\owasp\webwolf\mailbox\MailboxRepository.class
org\owasp\webwolf\jwt\JWTController.class
org\owasp\webwolf\jwt\JWTToken$JWTTokenBuilder.class
org\owasp\webwolf\requests\Requests.class
org\owasp\webwolf\requests\Requests$Tracert.class
org\owasp\webwolf\jwt\JWTToken.class
org\owasp\webwolf\mailbox\Email.class
org\owasp\webwolf\mailbox\Email$EmailBuilder.class
org\owasp\webwolf\user\UserValidator.class
org\owasp\webwolf\mailbox\MailboxController.class
org\owasp\webwolf\user\UserService.class
org\owasp\webwolf\user\UserForm.class
org\owasp\webwolf\FileServer.class
org\owasp\webwolf\user\UserRepository.class
