-------------------------------------------------------------------------------
Test set: org.owasp.webgoat.jwt.JWTDecodeEndpointTest
-------------------------------------------------------------------------------
Tests run: 2, Failures: 0, Errors: 0, Skipped: 0, Time elapsed: 10.179 s - in org.owasp.webgoat.jwt.JWTDecodeEndpointTest
