-------------------------------------------------------------------------------
Test set: org.owasp.webgoat.SqlInjectionMitigationTest
-------------------------------------------------------------------------------
Tests run: 1, Failures: 0, Errors: 0, Skipped: 0, Time elapsed: 2.967 s - in org.owasp.webgoat.SqlInjectionMitigationTest
