-------------------------------------------------------------------------------
Test set: org.owasp.webgoat.xxe.ContentTypeAssignmentTest
-------------------------------------------------------------------------------
Tests run: 4, Failures: 0, Errors: 0, Skipped: 0, Time elapsed: 0.198 s - in org.owasp.webgoat.xxe.ContentTypeAssignmentTest
